{
  "actions": [],
  "allow_rename": 1,
  "creation": "2023-04-08 16:34:46.937160",
  "default_view": "List",
  "doctype": "DocType",
  "editable_grid": 1,
  "engine": "InnoDB",
  "field_order": [
    "title",
    "description",
    "column_break_3",
    "event_for",
    "start_date",
    "end_date"
  ],
  "fields": [
    {
      "fieldname": "title",
      "fieldtype": "Data",
      "label": "Title"
    },
    {
      "fieldname": "description",
      "fieldtype": "Small Text",
      "label": "Description"
    },
    {
      "fieldname": "event_for",
      "fieldtype": "Select",
      "label": "Event for",
      "options": "School\nStandard"
    },
    {
      "fieldname": "start_date",
      "fieldtype": "Datetime",
      "label": "Starts On"
    },
    {
      "fieldname": "end_date",
      "fieldtype": "Datetime",
      "label": "Ends On"
    },
    {
      "fieldname": "column_break_3",
      "fieldtype": "Column Break"
    }
  ],
  "index_web_pages_for_search": 1,
  "links": [],
  "modified": "2023-04-08 16:34:46.937160",
  "modified_by": "Administrator",
  "module": "School Erp",
  "name": "School Event",
  "owner": "Administrator",
  "permissions": [
    {
      "create": 1,
      "delete": 1,
      "email": 1,
      "export": 1,
      "print": 1,
      "read": 1,
      "report": 1,
      "role": "System Manager",
      "share": 1,
      "write": 1
    }
  ],
  "sort_field": "modified",
  "sort_order": "DESC",
  "states": []
}
